/* XPM */
static char * closeI_xpm[] = {
"36 96 4 1",
" 	c None",
".	c #3B3C37",
"+	c #BE3F3B",
"%	c #FFFFFF",
"....................................",
".++++++++++++++++++++++++++++++++++.",
".++++++++++++++++++++++++++++++++++.",
".++++++++++++++++++++++++++++++++++.",
".++++++++++++++++++++++++++++++++++.",
".++++++++++++++++++++++++++++++++++.",
".+++++++++++++%%+++++%%++++++++++++.",
".+++++++++++++%%%+++%%%++++++++++++.",
".++++++++++++++%%%+%%%+++++++++++++.",
".+++++++++++++++%%%%%++++++++++++++.",
".++++++++++++++++%%%+++++++++++++++.",
".+++++++++++++++%%%%%++++++++++++++.",
".++++++++++++++%%%+%%%+++++++++++++.",
".+++++++++++++%%%+++%%%++++++++++++.",
".+++++++++++++%%+++++%%++++++++++++.",
".++++++++++++++++++++++++++++++++++.",
".++++++++++++++++++++++++++++++++++.",
".++++++++++++++++++++++++++++++++++.",
".++++++++++++++++++++++++++++++++++.",
".++++++++++++++++++++++++++++++++++.",
".++++++++++++++++++++++++++++++++++.",
"....................................",
"....................................",
"....................................",
"....................................",
"....................................",
"....................................",
"....................................",
"....................................",
"....................................",
"....................................",
"....................................",
"....................................",
"....................................",
"....................................",
"....................................",
"....................................",
"....................................",
"....................................",
"....................................",
"....................................",
"....................................",
"....................................",
"....................................",
"....................................",
"....................................",
"....................................",
"....................................",
"....................................",
"....................................",
"..+++++++++++++++++++++++++++++++++.",
"..+++++++++++++++++++++++++++++++++.",
"..+++++++++++++++++++++++++++++++++.",
"..+++++++++++++++++++++++++++++++++.",
"..+++++++++++++++++++++++++++++++++.",
"..++++++++++++++%+++++%++++++++++++.",
"..+++++++++++++%%%+++%%%+++++++++++.",
"..++++++++++++++%%%+%%%++++++++++++.",
"..+++++++++++++++%%%%%+++++++++++++.",
"..++++++++++++++++%%%++++++++++++++.",
"..+++++++++++++++%%%%%+++++++++++++.",
"..++++++++++++++%%%+%%%++++++++++++.",
"..+++++++++++++%%%+++%%%+++++++++++.",
"..++++++++++++++%+++++%++++++++++++.",
"..+++++++++++++++++++++++++++++++++.",
"..+++++++++++++++++++++++++++++++++.",
"..+++++++++++++++++++++++++++++++++.",
"..+++++++++++++++++++++++++++++++++.",
"..+++++++++++++++++++++++++++++++++.",
"....................................",
"....................................",
"....................................",
"....................................",
"....................................",
"....................................",
"....................................",
"....................................",
"....................................",
"....................................",
"....................................",
"....................................",
"....................................",
"....................................",
"....................................",
"....................................",
"....................................",
"....................................",
"....................................",
"....................................",
"....................................",
"....................................",
"....................................",
"....................................",
"....................................",
"....................................",
"...................................."};
