/* XPM */
static char *desktop_xpm[] = {
"20 20 2 1",
" 	c None",
"1	c #000000",
"                    ",
"                    ",
"                    ",
"                    ",
"                    ",
"                    ",
"                    ",
"                    ",
"                    ",
"                    ",
"                    ",
"                    ",
"                    ",
"                    ",
"                    ",
"                    ",
" 1111111111         ",
" 1111111111         ",
"                    ",
"                    "
};
